…
Search by location:

``` r
gaz_search(x = 2.927, y = 51.21551)
#> # A tibble: 54 × 14
#>    MRGID gazetteerSource          placeType minLatitude minLongitude maxLatitude
#>    <int> <chr>                    <chr>           <dbl>        <dbl>       <dbl>
#>  1    14 (2001). The Times compr… Nation           49.5         2.55        51.5
#>  2    14 (2001). The Times compr… Nation           49.5         2.55        51.5
#>  3    14 (2001). The Times compr… Nation           49.5         2.55        51.5
#>  4    14 (2001). The Times compr… Nation           49.5         2.55        51.5
#>  5    14 (2001). The Times compr… Nation           49.5         2.55        51.5
#>  6    14 (2001). The Times compr… Nation           49.5         2.55        51.5
#>  7    20 SAIL                     Province…        50.7         2.55        51.4
#>  8    20 SAIL                     Province…        50.7         2.55        51.4
#>  9    20 SAIL                     Province…        50.7         2.55        51.4
#> 10    20 SAIL                     Province…        50.7         2.55        51.4
#> # … with 44 more rows, and 8 more variables: maxLongitude <dbl>,
#> #   preferredGazetteerName <chr>, preferredGazetteerNameLang <chr>,
#> #   status <chr>, accepted <int>, latitude <dbl>, longitude <dbl>,
#> #   precision <dbl>
```

Search by place type:

``` r
gaz_search_by_type("EEZ")
#> # A tibble: 254 × 14
#>    MRGID gazetteerSource   placeType latitude longitude minLatitude minLongitude
#>    <int> <chr>             <chr>        <dbl>     <dbl>       <dbl>        <dbl>
#>  1  3293 Flanders Marine … EEZ           51.5      2.71        51.1         2.24
#>  2  5668 Flanders Marine … EEZ           53.6      4.19        51.0         2.54
#>  3  5669 Flanders Marine … EEZ           54.6      8.39        52.9         3.35
#>  4  5670 Flanders Marine … EEZ           40.9     19.1         39.6        18.3 
#>  5  5672 Flanders Marine … EEZ           42.9     29.2         42.0        27.4 
#>  6  5673 Flanders Marine … EEZ           43.4     15.7         41.6        13.0 
#>  7  5674 Flanders Marine … EEZ           56.1      9.25        54.4         3.25
#>  8  5675 Flanders Marine … EEZ           58.8     23.0         57.6        20.4 
#>  9  5676 Flanders Marine … EEZ           61.8     21.9         58.8        19.1 
#> 10  5677 Flanders Marine … EEZ           46.0     -1.97        41.2        -9.88
#> # … with 244 more rows, and 7 more variables: maxLatitude <dbl>,
#> #   maxLongitude <dbl>, precision <dbl>, preferredGazetteerName <chr>,
#> #   preferredGazetteerNameLang <chr>, status <chr>, accepted <int>
```

Search by authortative source:

``` r
gaz_search_by_source("Flanders Marine Institute (VLIZ)")
#> # A tibble: 23 × 13
#>    MRGID gazetteerSource           placeType latitude longitude preferredGazett…
#>    <int> <chr>                     <chr>        <dbl>     <dbl> <chr>           
#>  1 62642 Seys, J.; Pint, S.; Verv… Sampling…     51.3      3.16 SW-Blankenberge…
#>  2 62643 Seys, J.; Pint, S.; Verv… Sampling…     51.2      2.96 SW-Bredene-01   
#>  3 62644 Seys, J.; Pint, S.; Verv… Sampling…     51.3      3.26 SW-Duinbergen-01
#>  4 62645 Seys, J.; Pint, S.; Verv… Sampling…     51.3      3.00 SW-De Haan-Voss…
#>  5 62646 Seys, J.; Pint, S.; Verv… Sampling…     51.3      3.24 SW-Heist-01     
#>  6 62647 Seys, J.; Pint, S.; Verv… Sampling…     51.1      2.62 SW-Koksijde-01  
#>  7 62648 Seys, J.; Pint, S.; Verv… Sampling…     51.2      2.81 SW-Middelkerke-…
#>  8 62649 Seys, J.; Pint, S.; Verv… Sampling…     51.2      2.71 SW-Nieuwpoort-01
#>  9 62650 Seys, J.; Pint, S.; Verv… Sampling…     51.1      2.69 SW-Oostduinkerk…
#> 10 62651 Seys, J.; Pint, S.; Verv… Sampling…     51.2      2.94 SW-Oostende_Oos…
#> # … with 13 more rows, and 7 more variables: preferredGazetteerNameLang <chr>,
#> #   status <chr>, accepted <int>, minLatitude <dbl>, minLongitude <dbl>,
#> #   maxLatitude <dbl>, maxLongitude <dbl>
```
…
The entries of the Marine Regions Gazetteer are organized
hierarchically. You can browse this hierarchy up and down with
`gaz_relations()`

``` r
# Get all relations
gaz_search(3293) %>% gaz_relations()
#> # A tibble: 31 × 14
#>    MRGID gazetteerSource   placeType latitude longitude minLatitude minLongitude
#>    <int> <chr>             <chr>        <dbl>     <dbl>       <dbl>        <dbl>
#>  1  3293 Flanders Marine … EEZ           51.5      2.71        51.1         2.24
#>  2  2419 ASFA thesaurus    Sandbank…     51.5      2.58        NA          NA   
#>  3  2420 ASFA thesaurus    Sandbank…     51.5      2.88        NA          NA   
#>  4  2421 ASFA thesaurus    Sandbank…     51.3      2.64        NA          NA   
#>  5    14 (2001). The Time… Nation        50.5      4.48        49.5         2.55
#>  6  2350 (1953). Limits o… IHO Sea …     56.4      2.74        51.0        -4.45
#>  7  4675 <NA>              Sandbank…     NA       NA           NA          NA   
#>  8  2550 ASFA thesaurus    Coast         51.2      2.91        51.1         2.54
#>  9 17401 Aphia             Wreck         51.4      2.32        NA          NA   
#> 10 17409 Aphia             Wreck         51.1      2.33        NA          NA   
#> # … with 21 more rows, and 7 more variables: maxLatitude <dbl>,
#> #   maxLongitude <dbl>, precision <dbl>, preferredGazetteerName <chr>,
#> #   preferredGazetteerNameLang <chr>, status <chr>, accepted <int>

# Or get the relations directly
gaz_relations(3293)
#> # A tibble: 31 × 14
#>    MRGID gazetteerSource   placeType latitude longitude minLatitude minLongitude
#>    <int> <chr>             <chr>        <dbl>     <dbl>       <dbl>        <dbl>
#>  1  3293 Flanders Marine … EEZ           51.5      2.71        51.1         2.24
#>  2  2419 ASFA thesaurus    Sandbank…     51.5      2.58        NA          NA   
#>  3  2420 ASFA thesaurus    Sandbank…     51.5      2.88        NA          NA   
#>  4  2421 ASFA thesaurus    Sandbank…     51.3      2.64        NA          NA   
#>  5    14 (2001). The Time… Nation        50.5      4.48        49.5         2.55
#>  6  2350 (1953). Limits o… IHO Sea …     56.4      2.74        51.0        -4.45
#>  7  4675 <NA>              Sandbank…     NA       NA           NA          NA   
#>  8  2550 ASFA thesaurus    Coast         51.2      2.91        51.1         2.54
#>  9 17401 Aphia             Wreck         51.4      2.32        NA          NA   
#> 10 17409 Aphia             Wreck         51.1      2.33        NA          NA   
#> # … with 21 more rows, and 7 more variables: maxLatitude <dbl>,
#> #   maxLongitude <dbl>, precision <dbl>, preferredGazetteerName <chr>,
#> #   preferredGazetteerNameLang <chr>, status <chr>, accepted <int>
```

## Marine Regions Data Products

In addition to the Marine Regions Gazetteer, the Marine Regions Team
creates and hosts geographical Data Products, being the most popular one
the [Marine Regions Maritime
Boundaries](https://marineregions.org/eez.php).

An overview of all available products can be consulted with `mrp_list()`

``` r
mrp_list()
#> Loading ISO 19139 XML schemas...
#> Loading ISO 19115 codelists...
#> # A tibble: 21 × 8
#>    title                data_product license citation doi   imis  abstract id   
#>    <chr>                <chr>        <chr>   <chr>    <chr> <chr> <chr>    <glu>
#>  1 Exclusive Economic … eez          Creati… "Flande… http… http… "Versio… Mari…
#>  2 Maritime Boundaries… eez_boundar… Creati… "Flande… http… http… "Versio… Mari…
#>  3 Territorial Seas (1… eez_12nm     Creati… "Flande… http… http… "Versio… Mari…
#>  4 Contiguous Zones (2… eez_24nm     Creati… "Flande… http… http… "Versio… Mari…
#>  5 Internal Waters (v3… eez_interna… Creati… "Flande… http… http… "Versio… Mari…
#>  6 Archipelagic Waters… eez_archipe… Creati… "Flande… http… http… "Versio… Mari…
#>  7 High Seas (v1, worl… high_seas    Creati… "Flande… http… http… "High S… Mari…
#>  8 Extended Continenta… ecs          Creati… "Flande… http… http… "This d… Mari…
#>  9 Extended Continenta… ecs_boundar… Creati… "Flande… http… http… "This d… Mari…
#> 10 IHO Sea Areas (v3)   iho          Creati… "Flande… http… http… "World … Mari…
#> # … with 11 more rows
```
…
Or you can load the data products into R with `mrp_get()`

``` r
mrp_get("eez")
#> Simple feature collection with 281 features and 31 fields
#> Geometry type: MULTIPOLYGON
#> Dimension:     XY
#> Bounding box:  xmin: -180 ymin: -85.5625 xmax: 180 ymax: 86.99401
#> Geodetic CRS:  WGS 84
#> # A tibble: 281 × 32
#>    mrgid geoname   mrgid_ter1 pol_type mrgid_sov1 territory1 iso_ter1 sovereign1
#>  * <int> <chr>          <int> <chr>         <int> <chr>      <chr>    <chr>     
#>  1 62589 Chagos A…       8616 200NM          8614 Chagos Ar… <NA>     Mauritius 
#>  2  5690 Russian …       2240 200NM          2240 Russia     RUS      Russia    
#>  3 48978 Joint re…       2204 Joint r…       2204 United St… USA      United St…
#>  4  5688 Portugue…       2243 200NM          2243 Portugal   PRT      Portugal  
#>  5 48970 Joint re…       8640 Joint r…       8640 Dominican… DOM      Dominican…
#>  6 48971 Overlapp…       2175 Overlap…       2175 Colombia   COL      Colombia  
#>  7  5681 Irish Ex…       2114 200NM          2114 Ireland    IRL      Ireland   
#>  8 21788 Guernsey…       4377 200NM          2208 Guernsey   GGY      United Ki…
#>  9 48972 Joint re…       2103 Joint r…       2103 Honduras   HND      Honduras  
#> 10 48973 Joint re…       3297 Joint r…       2157 Faeroe     FRO      Denmark   
#> # … with 271 more rows, and 24 more variables: mrgid_ter2 <int>,
#> #   mrgid_sov2 <int>, territory2 <chr>, iso_ter2 <chr>, sovereign2 <chr>,
#> #   mrgid_ter3 <int>, mrgid_sov3 <int>, territory3 <chr>, iso_ter3 <chr>,
#> #   sovereign3 <chr>, x_1 <dbl>, y_1 <dbl>, mrgid_eez <int>, area_km2 <int>,
#> #   iso_sov1 <chr>, iso_sov2 <chr>, iso_sov3 <chr>, un_sov1 <dbl>,
#> #   un_sov2 <dbl>, un_sov3 <dbl>, un_ter1 <dbl>, un_ter2 <dbl>, un_ter3 <dbl>,
#> #   geometry <MULTIPOLYGON [°]>
```
…
