…
### Developer info

This is done in the method `gaz_relations.mr_df()`. `mr_df` is a class
defined in this package to ensure the data frame passed to gaz_relations
has a variable with
[MRGID](https://docs.ropensci.org/mregions2/reference/MRGID.md).

## Examples

``` r
# \donttest{
# Get the relations of the Belgian Exclusive Economic Zone
gaz_search("Belgian Exclusive Economic Zone") %>% gaz_relations()
#> # A tibble: 37 × 14
#>    MRGID gazetteerSource   placeType latitude longitude minLatitude minLongitude
#>    <int> <chr>             <chr>        <dbl>     <dbl>       <dbl>        <dbl>
#>  1  3293 Flanders Marine … EEZ           51.5      2.72        51.0         2.24
#>  2  2419 ASFA thesaurus    Sandbank…     51.5      2.58        NA          NA   
#>  3  2420 ASFA thesaurus    Sandbank…     51.5      2.88        NA          NA   
#>  4  2421 ASFA thesaurus    Sandbank…     51.3      2.64        NA          NA   
#>  5    14 (2001). The Time… Nation        50.5      4.48        49.5         2.55
#>  6  2350 (1953). Limits o… IHO Sea …     56.4      2.74        51.0        -4.45
#>  7  4675 Cattrijsse, A.; … Sandbank…     51.3      2.98        NA          NA   
#>  8  2550 ASFA thesaurus    Coast         51.2      2.91        51.1         2.54
#>  9 17401 Aphia             Wreck         51.4      2.32        NA          NA   
#> 10 17409 Aphia             Wreck         51.1      2.33        NA          NA   
#> # ℹ 27 more rows
#> # ℹ 7 more variables: maxLatitude <dbl>, maxLongitude <dbl>, precision <dbl>,
#> #   preferredGazetteerName <chr>, preferredGazetteerNameLang <chr>,
#> #   status <chr>, accepted <int>

# Or using its mrgid
gaz_relations(3293)
#> # A tibble: 37 × 14
#>    MRGID gazetteerSource   placeType latitude longitude minLatitude minLongitude
#>    <int> <chr>             <chr>        <dbl>     <dbl>       <dbl>        <dbl>
#>  1  3293 Flanders Marine … EEZ           51.5      2.72        51.0         2.24
#>  2  2419 ASFA thesaurus    Sandbank…     51.5      2.58        NA          NA   
#>  3  2420 ASFA thesaurus    Sandbank…     51.5      2.88        NA          NA   
#>  4  2421 ASFA thesaurus    Sandbank…     51.3      2.64        NA          NA   
#>  5    14 (2001). The Time… Nation        50.5      4.48        49.5         2.55
#>  6  2350 (1953). Limits o… IHO Sea …     56.4      2.74        51.0        -4.45
#>  7  4675 Cattrijsse, A.; … Sandbank…     51.3      2.98        NA          NA   
#>  8  2550 ASFA thesaurus    Coast         51.2      2.91        51.1         2.54
#>  9 17401 Aphia             Wreck         51.4      2.32        NA          NA   
#> 10 17409 Aphia             Wreck         51.1      2.33        NA          NA   
#> # ℹ 27 more rows
#> # ℹ 7 more variables: maxLatitude <dbl>, maxLongitude <dbl>, precision <dbl>,
#> #   preferredGazetteerName <chr>, preferredGazetteerNameLang <chr>,
#> #   status <chr>, accepted <int>
…
