…
  (double) Latitude in WGS84 (Optional)

## Value

A data frame with Gazetteer entries

## Examples

``` r
# \donttest{

# Look-up a name in the Gazetteer
gaz_search("North Sea")
#> # A tibble: 26 × 14
#>    MRGID gazetteerSource     placeType latitude longitude preferredGazetteerName
#>    <int> <chr>               <chr>        <dbl>     <dbl> <chr>                 
#>  1  2350 (1953). Limits of … IHO Sea …     56.4      2.74 North Sea             
#>  2  2399 ASFA thesaurus      Bight         51.6      3.02 Southern Bight of the…
#>  3  8542 Large Marine Ecosy… Large Ma…     57.4      2.73 North Sea             
#>  4 17441 Aphia               General …     53.1      2.81 Central North Sea     
#>  5 17977 Aphia               General …     59        1.8  Northern North Sea    
#>  6 17977 Aphia               General …     59        1.8  Northern Part of the …
#>  7 21912 Spalding, M. D. Fo… Marine E…     55.5      4.59 North Sea             
#>  8 22165 NA                  ICES Eco…     NA       NA    North Sea             
#>  9 22253 Aphia               General …     51.4      1.99 Southern North Sea    
#> 10 22762 Flanders Marine In… Marine R…     54.6      6.78 German part of the No…
#> # ℹ 16 more rows
#> # ℹ 8 more variables: preferredGazetteerNameLang <chr>, status <chr>,
#> #   accepted <int>, minLatitude <dbl>, minLongitude <dbl>, maxLatitude <dbl>,
#> #   maxLongitude <dbl>, precision <dbl>
…
