…
## Value

A data frame with Gazetteer entries

## See also

[gaz_rest](https://docs.ropensci.org/mregions2/reference/gaz_rest.md)

## Examples

``` r
# \donttest{
gaz_rest_records_by_lat_long(51.21551, 2.927)
#> # A tibble: 61 × 14
#>    MRGID gazetteerSource   placeType latitude longitude minLatitude minLongitude
#>    <int> <chr>             <chr>        <dbl>     <dbl>       <dbl>        <dbl>
#>  1    14 (2001). The Time… Nation        50.5      4.48        49.5         2.55
#>  2    14 (2001). The Time… Nation        50.5      4.48        49.5         2.55
#>  3    14 (2001). The Time… Nation        50.5      4.48        49.5         2.55
#>  4    14 (2001). The Time… Nation        50.5      4.48        49.5         2.55
#>  5    14 (2001). The Time… Nation        50.5      4.48        49.5         2.55
#>  6    14 (2001). The Time… Nation        50.5      4.48        49.5         2.55
#>  7    20 SAIL              Province…     51.0      3.03        50.7         2.55
#>  8    20 SAIL              Province…     51.0      3.03        50.7         2.55
#>  9    20 SAIL              Province…     51.0      3.03        50.7         2.55
#> 10    20 SAIL              Province…     51.0      3.03        50.7         2.55
#> # ℹ 51 more rows
#> # ℹ 7 more variables: maxLatitude <dbl>, maxLongitude <dbl>,
#> #   preferredGazetteerName <chr>, preferredGazetteerNameLang <chr>,
#> #   status <chr>, accepted <int>, precision <dbl>
…
