Retrieve Gazetteer Records by Placetype — gaz_search_by_type • mregions2
…
    Value

A data frame with Gazetteer entries

    See also

    gaz_types()

    Examples

# This
gaz_search_by_type("EEZ")
#> # A tibble: 254 × 14
#>    MRGID gazet…¹ place…² latit…³ longi…⁴ minLa…⁵ minLo…⁶ maxLa…⁷ maxLo…⁸ preci…⁹
#>    <int> <chr>   <chr>     <dbl>   <dbl>   <dbl>   <dbl>   <dbl>   <dbl>   <dbl>
#>  1  3293 Flande… EEZ        51.5    2.71    51.1    2.24    51.9    3.37  58302.
#>  2  5668 Flande… EEZ        53.6    4.19    51.0    2.54    55.8    7.21 294046.
#>  3  5669 Flande… EEZ        54.6    8.39    52.9    3.35    55.9   14.8  395846.
#>  4  5670 Flande… EEZ        40.9   19.1     39.6   18.3     42.0   20.0  139752.
#>  5  5672 Flande… EEZ        42.9   29.2     42.0   27.4     43.7   31.3  186792.
#>  6  5673 Flande… EEZ        43.4   15.7     41.6   13.0     45.6   18.5  313990.
#>  7  5674 Flande… EEZ        56.1    9.25    54.4    3.25    58.3   16.5  373814.
#>  8  5675 Flande… EEZ        58.8   23.0     57.6   20.4     60.0   28.2  258852 
#>  9  5676 Flande… EEZ        61.8   21.9     58.8   19.1     66.8   27.8  451201.
#> 10  5677 Flande… EEZ        46.0   -1.97    41.2   -9.88    51.6   10.2  965359.
#> # … with 244 more rows, 4 more variables: preferredGazetteerName <chr>,
#> #   preferredGazetteerNameLang <chr>, status <chr>, accepted <int>, and
#> #   abbreviated variable names ¹​gazetteerSource, ²​placeType, ³​latitude,
#> #   ⁴​longitude, ⁵​minLatitude, ⁶​minLongitude, ⁷​maxLatitude, ⁸​maxLongitude,
#> #   ⁹​precision

# is the same as
gaz_search_by_type(70)
#> # A tibble: 254 × 14
#>    MRGID gazet…¹ place…² latit…³ longi…⁴ minLa…⁵ minLo…⁶ maxLa…⁷ maxLo…⁸ preci…⁹
#>    <int> <chr>   <chr>     <dbl>   <dbl>   <dbl>   <dbl>   <dbl>   <dbl>   <dbl>
#>  1  3293 Flande… EEZ        51.5    2.71    51.1    2.24    51.9    3.37  58302.
#>  2  5668 Flande… EEZ        53.6    4.19    51.0    2.54    55.8    7.21 294046.
#>  3  5669 Flande… EEZ        54.6    8.39    52.9    3.35    55.9   14.8  395846.
#>  4  5670 Flande… EEZ        40.9   19.1     39.6   18.3     42.0   20.0  139752.
#>  5  5672 Flande… EEZ        42.9   29.2     42.0   27.4     43.7   31.3  186792.
#>  6  5673 Flande… EEZ        43.4   15.7     41.6   13.0     45.6   18.5  313990.
#>  7  5674 Flande… EEZ        56.1    9.25    54.4    3.25    58.3   16.5  373814.
#>  8  5675 Flande… EEZ        58.8   23.0     57.6   20.4     60.0   28.2  258852 
#>  9  5676 Flande… EEZ        61.8   21.9     58.8   19.1     66.8   27.8  451201.
#> 10  5677 Flande… EEZ        46.0   -1.97    41.2   -9.88    51.6   10.2  965359.
#> # … with 244 more rows, 4 more variables: preferredGazetteerName <chr>,
#> #   preferredGazetteerNameLang <chr>, status <chr>, accepted <int>, and
#> #   abbreviated variable names ¹​gazetteerSource, ²​placeType, ³​latitude,
#> #   ⁴​longitude, ⁵​minLatitude, ⁶​minLongitude, ⁷​maxLatitude, ⁸​maxLongitude,
#> #   ⁹​precision
…
