…
## Examples

``` r
# \donttest{
# Set cache path. Default is a temporal directory
options(mregions2.download_path = tempdir())

getOption("mregions2.download_path")
#> [1] "/var/folders/8j/sfr9qqcj73j4p6nhwcfpr0th0000gn/T//RtmpP4IbsV"
#> [1] "/tmp/RtmpARLgoE"

# See the list of all data products
mrp_list
#> # A tibble: 21 × 8
#>    title                   namespace layer license citation doi   imis  abstract
#>    <chr>                   <chr>     <chr> <chr>   <chr>    <chr> <chr> <chr>   
#>  1 Exclusive Economic Zon… MarineRe… eez   Creati… "Flande… http… http… "Versio…
#>  2 Maritime Boundaries (v… MarineRe… eez_… Creati… "Flande… http… http… "Versio…
#>  3 Territorial Seas (12 N… MarineRe… eez_… Creati… "Flande… http… http… "Versio…
#>  4 Contiguous Zones (24 N… MarineRe… eez_… Creati… "Flande… http… http… "Versio…
#>  5 Internal Waters (v3, w… MarineRe… eez_… Creati… "Flande… http… http… "Versio…
#>  6 Archipelagic Waters (v… MarineRe… eez_… Creati… "Flande… http… http… "Versio…
#>  7 High Seas (v1, world, … MarineRe… high… Creati… "Flande… http… http… "High S…
#>  8 Extended Continental S… MarineRe… ecs   Creati… "Flande… http… http… "This d…
#>  9 Extended Continental S… MarineRe… ecs_… Creati… "Flande… http… http… "This d…
#> 10 IHO Sea Areas (v3)      MarineRe… iho   Creati… "Flande… http… http… "World …
#> # ℹ 11 more rows
…
# See all the columns on this data product
mrp_colnames("eez")
#> # A tibble: 31 × 3
#>    layer colname    type  
#>  * <chr> <chr>      <chr> 
#>  1 eez   mrgid      int   
#>  2 eez   geoname    string
#>  3 eez   mrgid_ter1 int   
#>  4 eez   pol_type   string
#>  5 eez   mrgid_sov1 int   
#>  6 eez   territory1 string
#>  7 eez   iso_ter1   string
#>  8 eez   sovereign1 string
#>  9 eez   mrgid_ter2 int   
#> 10 eez   mrgid_sov2 int   
#> # ℹ 21 more rows
…
