Introduction to mregions2 • mregions2
…
Search by longitude and latitude

Reverse
geocoding is possible with mregions2: pass geographical
coordinates in the WGS84 projection will return all records that
intersect with the point.

e.g. the coordinates longitude
2.927 - latitude 51.21551 lay on the city of Ostend at the Belgian
coast

gaz_search(x = 2.927, y = 51.21551)
#> # A tibble: 54 × 14
#>    MRGID gazett…¹ place…² minLa…³ minLo…⁴ maxLa…⁵ maxLo…⁶ prefe…⁷ prefe…⁸ status
#>    <int> <chr>    <chr>     <dbl>   <dbl>   <dbl>   <dbl> <chr>   <chr>   <chr> 
#>  1    14 (2001).… Nation     49.5    2.55    51.5    6.41 Belgiq… French  stand…
#>  2    14 (2001).… Nation     49.5    2.55    51.5    6.41 Belgium English stand…
#>  3    14 (2001).… Nation     49.5    2.55    51.5    6.41 Bélgica Spanish stand…
#>  4    14 (2001).… Nation     49.5    2.55    51.5    6.41 Belgien German  stand…
#>  5    14 (2001).… Nation     49.5    2.55    51.5    6.41 België  Dutch   stand…
#>  6    14 (2001).… Nation     49.5    2.55    51.5    6.41 Belgio  Italian stand…
#>  7    20 SAIL     Provin…    50.7    2.55    51.4    3.52 West F… English stand…
#>  8    20 SAIL     Provin…    50.7    2.55    51.4    3.52 West-V… Dutch   stand…
#>  9    20 SAIL     Provin…    50.7    2.55    51.4    3.52 West-V… Dutch   stand…
#> 10    20 SAIL     Provin…    50.7    2.55    51.4    3.52 West F… English stand…
#> # … with 44 more rows, 4 more variables: accepted <int>, latitude <dbl>,
#> #   longitude <dbl>, precision <dbl>, and abbreviated variable names
#> #   ¹​gazetteerSource, ²​placeType, ³​minLatitude, ⁴​minLongitude, ⁵​maxLatitude,
#> #   ⁶​maxLongitude, ⁷​preferredGazetteerName, ⁸​preferredGazetteerNameLang

Passing an sfg geometry object from
sf::st_point() is also allowed:

pt <- st_point(c(x = 2.927, y = 51.21551))
pt
#> POINT (2.927 51.21551)

gaz_search(pt)
#> # A tibble: 54 × 14
#>    MRGID gazett…¹ place…² minLa…³ minLo…⁴ maxLa…⁵ maxLo…⁶ prefe…⁷ prefe…⁸ status
#>    <int> <chr>    <chr>     <dbl>   <dbl>   <dbl>   <dbl> <chr>   <chr>   <chr> 
#>  1    14 (2001).… Nation     49.5    2.55    51.5    6.41 Belgiq… French  stand…
#>  2    14 (2001).… Nation     49.5    2.55    51.5    6.41 Belgium English stand…
#>  3    14 (2001).… Nation     49.5    2.55    51.5    6.41 Bélgica Spanish stand…
#>  4    14 (2001).… Nation     49.5    2.55    51.5    6.41 Belgien German  stand…
#>  5    14 (2001).… Nation     49.5    2.55    51.5    6.41 België  Dutch   stand…
#>  6    14 (2001).… Nation     49.5    2.55    51.5    6.41 Belgio  Italian stand…
#>  7    20 SAIL     Provin…    50.7    2.55    51.4    3.52 West F… English stand…
#>  8    20 SAIL     Provin…    50.7    2.55    51.4    3.52 West-V… Dutch   stand…
#>  9    20 SAIL     Provin…    50.7    2.55    51.4    3.52 West-V… Dutch   stand…
#> 10    20 SAIL     Provin…    50.7    2.55    51.4    3.52 West F… English stand…
#> # … with 44 more rows, 4 more variables: accepted <int>, latitude <dbl>,
#> #   longitude <dbl>, precision <dbl>, and abbreviated variable names
#> #   ¹​gazetteerSource, ²​placeType, ³​minLatitude, ⁴​minLongitude, ⁵​maxLatitude,
#> #   ⁶​maxLongitude, ⁷​preferredGazetteerName, ⁸​preferredGazetteerNameLang

Search by place type

The records of the Marine Regions Gazetteer have place
types assigned, either physical such as sea
mounts or banks, or administrative like Territorial Sea
or Exclusive Economic Zone.

You can find the full list, descriptions and its identifier in the
database with gaz_types():

gaz_types()
#> # A tibble: 327 × 3
#>    typeID type                      description                                 
#>     <int> <chr>                     <chr>                                       
#>  1      1 Town                      The lowest administrative unit in Belgium a…
#>  2      2 Arrondissement            The administrative unit in Belgium that lie…
#>  3      3 Department                A high-level administrative unit that is us…
#>  4      4 Province (administrative) A medium-level administrative unit that is …
#>  5      5 Country                   A high-level administrative unit that only …
#>  6      6 Continent                 The highest subdivision of the world. There…
#>  7      7 Region                    A high-level administrative unit that is us…
#>  8      8 Ward                      The lowest administrative unit in the Unite…
#>  9      9 Commune                   The lowest administrative unit in a lot of …
#> 10     10 District                  A medium-level administrative unit that is …
#> # … with 317 more rows
…
Or you can look up all the records with a certain place type with
gaz_search_by_type()

# With text
gaz_search_by_type("Town")
#> # A tibble: 932 × 14
#>    MRGID gazett…¹ place…² latit…³ longi…⁴ prefe…⁵ prefe…⁶ status accep…⁷ minLa…⁸
#>    <int> <chr>    <chr>     <dbl>   <dbl> <chr>   <chr>   <chr>    <int>   <dbl>
#>  1    29 SAIL     Town       51.1    3.23 Oostka… Dutch   stand…      29    51.1
#>  2    30 SAIL     Town       51.1    3.34 Beernem Dutch   stand…      30    51.1
#>  3    31 SAIL     Town       51.3    3.14 Blanke… Dutch   stand…      31    51.3
#>  4    32 SAIL     Town       51.3    3.32 Damme   Dutch   stand…      32    51.2
#>  5    33 SAIL     Town       51.1    3.10 Torhout Dutch   stand…      33    51.0
#>  6    34 SAIL     Town       51.2    3.10 Jabbeke Dutch   stand…      34    51.1
#>  7    35 SAIL     Town       51.1    3.14 Zedelg… Dutch   stand…      35    51.1
#>  8    36 SAIL     Town       51.3    3.13 Zuienk… Dutch   stand…      36    51.2
#>  9    37 SAIL     Town       51.3    3.31 Knokke… Dutch   stand…      37    51.3
#> 10    38 SAIL     Town       51.3    3.22 Brugge  Dutch   stand…      38    51.2
#> # … with 922 more rows, 4 more variables: minLongitude <dbl>,
#> #   maxLatitude <dbl>, maxLongitude <dbl>, precision <dbl>, and abbreviated
#> #   variable names ¹​gazetteerSource, ²​placeType, ³​latitude, ⁴​longitude,
#> #   ⁵​preferredGazetteerName, ⁶​preferredGazetteerNameLang, ⁷​accepted,
#> #   ⁸​minLatitude

# With the place type ID
gaz_search_by_type(1)
#> # A tibble: 932 × 14
#>    MRGID gazett…¹ place…² latit…³ longi…⁴ prefe…⁵ prefe…⁶ status accep…⁷ minLa…⁸
#>    <int> <chr>    <chr>     <dbl>   <dbl> <chr>   <chr>   <chr>    <int>   <dbl>
#>  1    29 SAIL     Town       51.1    3.23 Oostka… Dutch   stand…      29    51.1
#>  2    30 SAIL     Town       51.1    3.34 Beernem Dutch   stand…      30    51.1
#>  3    31 SAIL     Town       51.3    3.14 Blanke… Dutch   stand…      31    51.3
#>  4    32 SAIL     Town       51.3    3.32 Damme   Dutch   stand…      32    51.2
#>  5    33 SAIL     Town       51.1    3.10 Torhout Dutch   stand…      33    51.0
#>  6    34 SAIL     Town       51.2    3.10 Jabbeke Dutch   stand…      34    51.1
#>  7    35 SAIL     Town       51.1    3.14 Zedelg… Dutch   stand…      35    51.1
#>  8    36 SAIL     Town       51.3    3.13 Zuienk… Dutch   stand…      36    51.2
#>  9    37 SAIL     Town       51.3    3.31 Knokke… Dutch   stand…      37    51.3
#> 10    38 SAIL     Town       51.3    3.22 Brugge  Dutch   stand…      38    51.2
#> # … with 922 more rows, 4 more variables: minLongitude <dbl>,
#> #   maxLatitude <dbl>, maxLongitude <dbl>, precision <dbl>, and abbreviated
#> #   variable names ¹​gazetteerSource, ²​placeType, ³​latitude, ⁴​longitude,
#> #   ⁵​preferredGazetteerName, ⁶​preferredGazetteerNameLang, ⁷​accepted,
#> #   ⁸​minLatitude

Search by source document

The entries in the Marine Regions Gazetteer are always based on a
source. This is either a document, a web site or any
sort of authority.

The list of sources is available with gaz_sources()

# List sources
gaz_sources()
#> # A tibble: 425 × 3
#>    sourceID source                                                       sourc…¹
#>       <int> <chr>                                                        <chr>  
#>  1        1 SAIL                                                         http:/…
#>  2        2 ASFA thesaurus                                               http:/…
#>  3        4 Nationaal Instituut voor de Statistiek (NIS) / National Sta… http:/…
#>  4        5 Oosthoek Times Wereldatlas                                   NA     
#>  5        6 Lausch, E. (2000). Atlas van de oceanen: met de dieptekaart… NA     
#>  6        7 (2001). The Times comprehensive atlas of the world. 10th ed… NA     
#>  7        8 IHO-IOC GEBCO Gazetteer of Undersea Feature Names (2002-10-… http:/…
#>  8        9 BIOMARE                                                      http:/…
#>  9       10 (1953). Limits of oceans and seas. 3rd edition. IHO Special… NA     
#> 10       11 Nomenclature des espaces maritimes/List of maritime areas    NA     
#> # … with 415 more rows, and abbreviated variable name ¹​sourceURL

Search by source is possible with the function
gaz_search_by_source(), either with the source as text or
passing a sourceID

# With text
gaz_search_by_source("Flanders Marine Institute (VLIZ)")
#> # A tibble: 23 × 13
#>    MRGID gazett…¹ place…² latit…³ longi…⁴ prefe…⁵ prefe…⁶ status accep…⁷ minLa…⁸
#>    <int> <chr>    <chr>     <dbl>   <dbl> <chr>   <chr>   <chr>    <int>   <dbl>
#>  1 62642 Seys, J… Sampli…    51.3    3.16 SW-Bla… English stand…   62642      NA
#>  2 62643 Seys, J… Sampli…    51.2    2.96 SW-Bre… English stand…   62643      NA
#>  3 62644 Seys, J… Sampli…    51.3    3.26 SW-Dui… English stand…   62644      NA
#>  4 62645 Seys, J… Sampli…    51.3    3.00 SW-De … English stand…   62645      NA
#>  5 62646 Seys, J… Sampli…    51.3    3.24 SW-Hei… English stand…   62646      NA
#>  6 62647 Seys, J… Sampli…    51.1    2.62 SW-Kok… English stand…   62647      NA
#>  7 62648 Seys, J… Sampli…    51.2    2.81 SW-Mid… English stand…   62648      NA
#>  8 62649 Seys, J… Sampli…    51.2    2.71 SW-Nie… English stand…   62649      NA
#>  9 62650 Seys, J… Sampli…    51.1    2.69 SW-Oos… English stand…   62650      NA
#> 10 62651 Seys, J… Sampli…    51.2    2.94 SW-Oos… English stand…   62651      NA
#> # … with 13 more rows, 3 more variables: minLongitude <dbl>, maxLatitude <dbl>,
#> #   maxLongitude <dbl>, and abbreviated variable names ¹​gazetteerSource,
#> #   ²​placeType, ³​latitude, ⁴​longitude, ⁵​preferredGazetteerName,
#> #   ⁶​preferredGazetteerNameLang, ⁷​accepted, ⁸​minLatitude

# With source ID
gaz_search_by_source(695) 
#> # A tibble: 23 × 13
#>    MRGID gazett…¹ place…² latit…³ longi…⁴ prefe…⁵ prefe…⁶ status accep…⁷ minLa…⁸
#>    <int> <chr>    <chr>     <dbl>   <dbl> <chr>   <chr>   <chr>    <int>   <dbl>
#>  1 62642 Seys, J… Sampli…    51.3    3.16 SW-Bla… English stand…   62642      NA
#>  2 62643 Seys, J… Sampli…    51.2    2.96 SW-Bre… English stand…   62643      NA
#>  3 62644 Seys, J… Sampli…    51.3    3.26 SW-Dui… English stand…   62644      NA
#>  4 62645 Seys, J… Sampli…    51.3    3.00 SW-De … English stand…   62645      NA
#>  5 62646 Seys, J… Sampli…    51.3    3.24 SW-Hei… English stand…   62646      NA
#>  6 62647 Seys, J… Sampli…    51.1    2.62 SW-Kok… English stand…   62647      NA
#>  7 62648 Seys, J… Sampli…    51.2    2.81 SW-Mid… English stand…   62648      NA
#>  8 62649 Seys, J… Sampli…    51.2    2.71 SW-Nie… English stand…   62649      NA
#>  9 62650 Seys, J… Sampli…    51.1    2.69 SW-Oos… English stand…   62650      NA
#> 10 62651 Seys, J… Sampli…    51.2    2.94 SW-Oos… English stand…   62651      NA
#> # … with 13 more rows, 3 more variables: minLongitude <dbl>, maxLatitude <dbl>,
#> #   maxLongitude <dbl>, and abbreviated variable names ¹​gazetteerSource,
#> #   ²​placeType, ³​latitude, ⁴​longitude, ⁵​preferredGazetteerName,
#> #   ⁶​preferredGazetteerNameLang, ⁷​accepted, ⁸​minLatitude
…
Learn more about using the mregions2 to access the Marine
Regions Gazetteer as RDF article.

Relations

The Marine Regions Gazetteer is hierarchically: All
the records got relations with each other. You can either pass the
result of gaz_search() to gaz_relations() or
an MRGID:

# With gaz_search()
gaz_search(3293) %>% gaz_relations()
#> # A tibble: 31 × 14
#>    MRGID gazet…¹ place…² latit…³ longi…⁴ minLa…⁵ minLo…⁶ maxLa…⁷ maxLo…⁸ preci…⁹
#>    <int> <chr>   <chr>     <dbl>   <dbl>   <dbl>   <dbl>   <dbl>   <dbl>   <dbl>
#>  1  3293 Flande… EEZ        51.5    2.71    51.1    2.24    51.9    3.37  58302.
#>  2  2419 ASFA t… Sandba…    51.5    2.58    NA     NA       NA     NA     24000 
#>  3  2420 ASFA t… Sandba…    51.5    2.88    NA     NA       NA     NA     20000 
#>  4  2421 ASFA t… Sandba…    51.3    2.64    NA     NA       NA     NA     15000 
#>  5    14 (2001)… Nation     50.5    4.48    49.5    2.55    51.5    6.41 176337.
#>  6  2350 (1953)… IHO Se…    56.4    2.74    51.0   -4.45    61.0   12.0  711089.
#>  7  4675 NA      Sandba…    NA     NA       NA     NA       NA     NA        NA 
#>  8  2550 ASFA t… Coast      51.2    2.91    51.1    2.54    51.4    3.37     NA 
#>  9 17401 Aphia   Wreck      51.4    2.32    NA     NA       NA     NA        NA 
#> 10 17409 Aphia   Wreck      51.1    2.33    NA     NA       NA     NA        NA 
#> # … with 21 more rows, 4 more variables: preferredGazetteerName <chr>,
#> #   preferredGazetteerNameLang <chr>, status <chr>, accepted <int>, and
#> #   abbreviated variable names ¹​gazetteerSource, ²​placeType, ³​latitude,
#> #   ⁴​longitude, ⁵​minLatitude, ⁶​minLongitude, ⁷​maxLatitude, ⁸​maxLongitude,
#> #   ⁹​precision

# With MRGID
gaz_relations(3293)
#> # A tibble: 31 × 14
#>    MRGID gazet…¹ place…² latit…³ longi…⁴ minLa…⁵ minLo…⁶ maxLa…⁷ maxLo…⁸ preci…⁹
#>    <int> <chr>   <chr>     <dbl>   <dbl>   <dbl>   <dbl>   <dbl>   <dbl>   <dbl>
#>  1  3293 Flande… EEZ        51.5    2.71    51.1    2.24    51.9    3.37  58302.
#>  2  2419 ASFA t… Sandba…    51.5    2.58    NA     NA       NA     NA     24000 
#>  3  2420 ASFA t… Sandba…    51.5    2.88    NA     NA       NA     NA     20000 
#>  4  2421 ASFA t… Sandba…    51.3    2.64    NA     NA       NA     NA     15000 
#>  5    14 (2001)… Nation     50.5    4.48    49.5    2.55    51.5    6.41 176337.
#>  6  2350 (1953)… IHO Se…    56.4    2.74    51.0   -4.45    61.0   12.0  711089.
#>  7  4675 NA      Sandba…    NA     NA       NA     NA       NA     NA        NA 
#>  8  2550 ASFA t… Coast      51.2    2.91    51.1    2.54    51.4    3.37     NA 
#>  9 17401 Aphia   Wreck      51.4    2.32    NA     NA       NA     NA        NA 
#> 10 17409 Aphia   Wreck      51.1    2.33    NA     NA       NA     NA        NA 
#> # … with 21 more rows, 4 more variables: preferredGazetteerName <chr>,
#> #   preferredGazetteerNameLang <chr>, status <chr>, accepted <int>, and
#> #   abbreviated variable names ¹​gazetteerSource, ²​placeType, ³​latitude,
#> #   ⁴​longitude, ⁵​minLatitude, ⁶​minLongitude, ⁷​maxLatitude, ⁸​maxLongitude,
#> #   ⁹​precision
…
See the Marine
Regions Gazetteer as RDF article for more information.

Marine Regions Data Products

The main function to load a Marine Regions Data Product into R is
mrp_get(). To select a data product, you have to pass the
data_product.

# See the full list of data products
mrp_list()
#> Loading ISO 19139 XML schemas...
#> Loading ISO 19115 codelists...
#> # A tibble: 21 × 8
#>    title                       data_…¹ license citat…² doi   imis  abstr…³ id   
#>    <chr>                       <chr>   <chr>   <chr>   <chr> <chr> <chr>   <glu>
#>  1 Exclusive Economic Zones (… eez     Creati… "Fland… http… http… "Versi… Mari…
#>  2 Maritime Boundaries (v11, … eez_bo… Creati… "Fland… http… http… "Versi… Mari…
#>  3 Territorial Seas (12 NM) (… eez_12… Creati… "Fland… http… http… "Versi… Mari…
#>  4 Contiguous Zones (24 NM) (… eez_24… Creati… "Fland… http… http… "Versi… Mari…
#>  5 Internal Waters (v3, world… eez_in… Creati… "Fland… http… http… "Versi… Mari…
#>  6 Archipelagic Waters (v3, w… eez_ar… Creati… "Fland… http… http… "Versi… Mari…
#>  7 High Seas (v1, world, 2020) high_s… Creati… "Fland… http… http… "High … Mari…
#>  8 Extended Continental Shelv… ecs     Creati… "Fland… http… http… "This … Mari…
#>  9 Extended Continental Shelv… ecs_bo… Creati… "Fland… http… http… "This … Mari…
#> 10 IHO Sea Areas (v3)          iho     Creati… "Fland… http… http… "World… Mari…
#> # … with 11 more rows, and abbreviated variable names ¹​data_product, ²​citation,
#> #   ³​abstract

# Get the Extended Continental Shelves
mrp_get("ecs")
#> Simple feature collection with 134 features and 63 fields
#> Geometry type: MULTIPOLYGON
#> Dimension:     XY
#> Bounding box:  xmin: -180 ymin: -64.03206 xmax: 180 ymax: 90
#> Geodetic CRS:  WGS 84
#> # A tibble: 134 × 64
#>    geoname       pol_t…¹ terri…² mrgid…³ iso_t…⁴ un_ter1 sover…⁵ mrgid…⁶ iso_s…⁷
#>  * <chr>         <chr>   <chr>   <chr>   <chr>   <chr>   <chr>   <chr>   <chr>  
#>  1 Overlapping … ECS Ov… New Ze… 2227    NZL     554     New Ze… 2227    NZL    
#>  2 Overlapping … ECS Ov… Ireland 2114    IRL     372     Ireland 2114    IRL    
#>  3 Guyanese Ext… ECS CL… Guyana  2124    GUY     328     Guyana  2124    GUY    
#>  4 Mauritian Ex… ECS CL… Republ… 8614    MUS     480     Republ… 8614    MUS    
#>  5 Danish Exten… ECS CL… Faeroe  3297    FRO     234     Denmark 2157    DNK    
#>  6 Overlapping … ECS Ov… Barbad… 8649    BRB     52      Barbad… 8649    BRB    
#>  7 Brazilian Ex… ECS CL… Brazil  2143    BRA     76      Brazil  2143    BRA    
#>  8 Overlapping … ECS Ov… New Ze… 2227    NZL     554     New Ze… 2227    NZL    
#>  9 Japanese Ext… ECS CL… Japan   2121    JPN     392     Japan   2121    JPN    
#> 10 Overlapping … ECS Ov… Japan   2121    JPN     392     Japan   2121    JPN    
#> # … with 124 more rows, 55 more variables: un_sov1 <chr>, territory2 <chr>,
#> #   mrgid_ter2 <chr>, iso_ter2 <chr>, un_ter2 <chr>, sovereign2 <chr>,
#> #   mrgid_sov2 <chr>, iso_sov2 <chr>, un_sov2 <chr>, territory3 <chr>,
#> #   mrgid_ter3 <chr>, iso_ter3 <chr>, un_ter3 <chr>, sovereign3 <chr>,
#> #   mrgid_sov3 <chr>, iso_sov3 <chr>, un_sov3 <chr>, territory4 <chr>,
#> #   mrgid_ter4 <chr>, iso_ter4 <chr>, un_ter4 <chr>, sovereign4 <chr>,
#> #   mrgid_sov4 <chr>, iso_sov4 <chr>, un_sov4 <chr>, territory5 <chr>, …
…
