mregions2 as RDF • mregions2
…
SPARQL queries
can be applied to the RDF document. Note: The MRGID of the
Belgian Part of the North Sea is
<http://marineregions.org/mrgid/3293>

Extract all info from the record

sparql <- "
  SELECT ?p ?o
  WHERE {
    <http://marineregions.org/mrgid/3293> ?p ?o
  }"

rdf_query(bpns, query = sparql)
#> # A tibble: 34 × 2
#>    p                                             o                              
#>    <chr>                                         <chr>                          
#>  1 http://marineregions.org/ns/ontology#contains http://marineregions.org/mrgid…
#>  2 http://marineregions.org/ns/ontology#contains http://marineregions.org/mrgid…
#>  3 http://marineregions.org/ns/ontology#contains http://marineregions.org/mrgid…
#>  4 http://marineregions.org/ns/ontology#contains http://marineregions.org/mrgid…
#>  5 http://marineregions.org/ns/ontology#contains http://marineregions.org/mrgid…
#>  6 http://marineregions.org/ns/ontology#contains http://marineregions.org/mrgid…
#>  7 http://marineregions.org/ns/ontology#contains http://marineregions.org/mrgid…
#>  8 http://marineregions.org/ns/ontology#contains http://marineregions.org/mrgid…
#>  9 http://marineregions.org/ns/ontology#contains http://marineregions.org/mrgid…
#> 10 http://marineregions.org/ns/ontology#contains http://marineregions.org/mrgid…
#> # ℹ 24 more rows
Extract all relationship

The following example extracts all the predicates with the prefix
mr:, pointing to the Marine Regions Ontology at http://marineregions.org/ns/ontology.

sparql <- "
  PREFIX mr: <http://marineregions.org/ns/ontology#> 
  SELECT ?s ?p ?o
  WHERE {
    ?s ?p ?o .
    FILTER( STRSTARTS(STR(?p), str(mr:)) )
  }"

rdf_query(bpns, query = sparql)
#> # A tibble: 23 × 3
#>    s                                   p                                   o    
#>    <chr>                               <chr>                               <chr>
#>  1 http://marineregions.org/mrgid/3293 http://marineregions.org/ns/ontolo… http…
#>  2 http://marineregions.org/mrgid/3293 http://marineregions.org/ns/ontolo… http…
#>  3 http://marineregions.org/mrgid/3293 http://marineregions.org/ns/ontolo… http…
#>  4 http://marineregions.org/mrgid/3293 http://marineregions.org/ns/ontolo… http…
#>  5 http://marineregions.org/mrgid/3293 http://marineregions.org/ns/ontolo… http…
#>  6 http://marineregions.org/mrgid/3293 http://marineregions.org/ns/ontolo… http…
#>  7 http://marineregions.org/mrgid/3293 http://marineregions.org/ns/ontolo… http…
#>  8 http://marineregions.org/mrgid/3293 http://marineregions.org/ns/ontolo… http…
#>  9 http://marineregions.org/mrgid/3293 http://marineregions.org/ns/ontolo… http…
#> 10 http://marineregions.org/mrgid/3293 http://marineregions.org/ns/ontolo… http…
#> # ℹ 13 more rows
…
