…
#### Extract all info from the record

``` r

sparql <- "
  SELECT ?p ?o
  WHERE {
    <http://marineregions.org/mrgid/3293> ?p ?o
  }"

rdf_query(bpns, query = sparql)
#> # A tibble: 32 × 2
#>    p                                             o                              
#>    <chr>                                         <chr>                          
#>  1 http://marineregions.org/ns/ontology#contains http://marineregions.org/mrgid…
#>  2 http://marineregions.org/ns/ontology#contains http://marineregions.org/mrgid…
#>  3 http://marineregions.org/ns/ontology#contains http://marineregions.org/mrgid…
#>  4 http://marineregions.org/ns/ontology#contains http://marineregions.org/mrgid…
#>  5 http://marineregions.org/ns/ontology#contains http://marineregions.org/mrgid…
#>  6 http://marineregions.org/ns/ontology#contains http://marineregions.org/mrgid…
#>  7 http://marineregions.org/ns/ontology#contains http://marineregions.org/mrgid…
#>  8 http://marineregions.org/ns/ontology#contains http://marineregions.org/mrgid…
#>  9 http://marineregions.org/ns/ontology#contains http://marineregions.org/mrgid…
#> 10 http://marineregions.org/ns/ontology#contains http://marineregions.org/mrgid…
#> # ℹ 22 more rows
```
…
``` r

sparql <- "
  PREFIX mr: <http://marineregions.org/ns/ontology#> 
  SELECT ?s ?p ?o
  WHERE {
    ?s ?p ?o .
    FILTER( STRSTARTS(STR(?p), str(mr:)) )
  }"

rdf_query(bpns, query = sparql)
#> # A tibble: 23 × 3
#>    s                                   p                                   o    
#>    <chr>                               <chr>                               <chr>
#>  1 http://marineregions.org/mrgid/3293 http://marineregions.org/ns/ontolo… http…
#>  2 http://marineregions.org/mrgid/3293 http://marineregions.org/ns/ontolo… http…
#>  3 http://marineregions.org/mrgid/3293 http://marineregions.org/ns/ontolo… http…
#>  4 http://marineregions.org/mrgid/3293 http://marineregions.org/ns/ontolo… http…
#>  5 http://marineregions.org/mrgid/3293 http://marineregions.org/ns/ontolo… http…
#>  6 http://marineregions.org/mrgid/3293 http://marineregions.org/ns/ontolo… http…
#>  7 http://marineregions.org/mrgid/3293 http://marineregions.org/ns/ontolo… http…
#>  8 http://marineregions.org/mrgid/3293 http://marineregions.org/ns/ontolo… http…
#>  9 http://marineregions.org/mrgid/3293 http://marineregions.org/ns/ontolo… http…
#> 10 http://marineregions.org/mrgid/3293 http://marineregions.org/ns/ontolo… http…
#> # ℹ 13 more rows
```
…
sparql <- '
  PREFIX skos: <http://www.w3.org/2004/02/skos/core#>
  SELECT (COALESCE(?altLabel, ?prefLabel) AS ?o)
  WHERE {
    OPTIONAL {
      ?s skos:altLabel ?altLabel .
      filter langMatches(lang(?altLabel), "nl")
    }
    ?s skos:prefLabel ?prefLabel .
  }
'

rdf_query(belgium, query = sparql)
#> # A tibble: 26 × 1
#>    o                             
#>    <chr>                         
#>  1 Geul                          
#>  2 Belgium                       
#>  3 Meuse Basin                   
#>  4 Belgian Internal Waters       
#>  5 Brussels Hoofdstedelijk Gewest
#>  6 Maas                          
#>  7 Zwin                          
#>  8 IJzer                         
#>  9 Belgium                       
#> 10 Scheldebekken                 
#> # ℹ 16 more rows
```
…
