…
This work was triggered during the [rOpenSci
review](https://github.com/ropensci/software-review/issues/590#issuecomment-1606138219).
Thanks to [@sheilasaia](https://github.com/sheilasaia) for raising this
issue.

You can consult the list in your R session via the `mrp_ontology` object
that is loaded with `mregions2`

``` r

library(mregions2)
mrp_ontology
#> # A tibble: 374 × 4
#>    layer colname    type   definition                                           
#>    <chr> <chr>      <chr>  <chr>                                                
#>  1 eez   mrgid      int    Marine Regions Geographic Identifier of the feature.…
#>  2 eez   geoname    string Name of the feature.                                 
#>  3 eez   mrgid_ter1 int    Marine Regions Geographic Identifier of the territor…
#>  4 eez   pol_type   string Basis of creation or legal status of feature. One of…
#>  5 eez   mrgid_sov1 int    Marine Regions Geographic Identifier of the sovereig…
#>  6 eez   territory1 string Specific land area which directly relates to the fea…
#>  7 eez   iso_ter1   string ISO 3 code of the territory feature.                 
#>  8 eez   sovereign1 string State that claims jurisdiction over the territory.   
#>  9 eez   mrgid_ter2 int    Marine Regions Geographic Identifier of the territor…
#> 10 eez   mrgid_sov2 int    Marine Regions Geographic Identifier of the sovereig…
#> # ℹ 364 more rows
```
…
